STAT 313 - Spring 2023 - Team Creation
…
all_surveys <- survey2 %>% 
  select(all_of(matching_cols)) %>% 
  full_join(survey1,
            by = c(matching_cols)
            )

Surveys Completed

survey1 %>% 
  select(last) %>% 
  arrange(last)

# A tibble: 51 × 1
   last        
   <chr>       
 1 Alarcon     
 2 Betwos      
 3 Bobbitt     
 4 Caffo       
 5 Chowaniec   
 6 Chris Deuter
 7 Cohn        
 8 Colby       
 9 Dohrmann    
10 English     
# … with 41 more rows

survey2 %>% 
  select(last) %>% 
  arrange(last)

# A tibble: 39 × 1
   last        
   <chr>       
 1 Babb        
 2 Bennitt     
 3 Chmelka     
 4 Coyne       
 5 David       
 6 Felices     
 7 Franco      
 8 Goebel      
 9 Guglielmelli
10 Hodges      
# … with 29 more rows
…
