STAT 313 / 513 - Winter 2024 - Week 8 – Hypothesis Test for Slope & Inference Conditions
…
Figure 6: Process for conducting hypothesis tests with the infer package.

Throughout this section, we’ll use a pre-specified significance level \(\alpha\) = 0.05 for our hypothesis tests. I’ll leave the discussion on the choice of this \(\alpha\) value until later on in Section 4.3.

3.1 specify() variables

Recall that we use the specify() verb to specify the response variable and, if needed, any explanatory variables for our study. In this case, since we are interested in the linear relationship between a baby’s birth weight and a mother’s age, we set weight as the response variable and mage as the explanatory variable.

births14 %>% 
  specify(response = weight, explanatory = mage) 

Response: weight (numeric)
Explanatory: mage (numeric)
# A tibble: 1,000 × 2
   weight  mage
    <dbl> <dbl>
 1   6.96    34
 2   8.86    31
 3   7.51    36
 4   6.19    16
 5   6.75    31
 6   6.69    26
 7   6.13    36
 8   6.74    24
 9   8.94    32
10   9.12    26
# ℹ 990 more rows
…
\(H_0: \beta_1 = 0\)

\(H_A: \beta_1 \neq 0\)

In other words, the null hypothesis \(H_0\) corresponding to our “hypothesized universe” stated that there was no relationship between a baby’s birth weight and a mother’s age. We set this null hypothesis \(H_0\) in our infer workflow using the hypothesize() function. We do, however, need to declare what we are assuming about the relationship between our variables. For our regression we are assuming there is no relationship between our variables or that they are"independent".

births14 %>% 
  specify(response = weight, explanatory = mage) %>% 
  hypothesize(null = "independence")

Response: weight (numeric)
Explanatory: mage (numeric)
Null Hypothesis: independence
# A tibble: 1,000 × 2
   weight  mage
    <dbl> <dbl>
 1   6.96    34
 2   8.86    31
 3   7.51    36
 4   6.19    16
 5   6.75    31
 6   6.69    26
 7   6.13    36
 8   6.74    24
 9   8.94    32
10   9.12    26
# ℹ 990 more rows
…
3.3 generate() replicates

After we hypothesize() the null hypothesis, we generate() replicates of “shuffled” datasets assuming the null hypothesis is true. We do this by repeating the shuffling exercise you performed in Section 1.3 several times. Instead of merely doing it 10 times, let’s use the computer to repeat this 1000 times by setting reps = 1000 in the generate() function. However, unlike for confidence intervals where we generated replicates using type = "bootstrap" resampling with replacement, we’ll now perform shuffles/permutations by setting type = "permute". Recall that shuffles / permutations are a kind of resampling, but unlike the bootstrap method, they involve resampling without replacement.

births_generate <- births14 %>% 
  specify(response = weight, explanatory = mage) %>% 
  hypothesize(null = "independence") %>% 
  generate(reps = 1000, type = "permute")

births_generate

Response: weight (numeric)
Explanatory: mage (numeric)
Null Hypothesis: independence
# A tibble: 1,000,000 × 3
# Groups:   replicate [1,000]
   weight  mage replicate
    <dbl> <dbl>     <int>
 1   6.56    34         1
 2   9       31         1
 3   6.96    36         1
 4   7.8     16         1
 5   8.39    31         1
 6   6.56    26         1
 7   8.95    36         1
 8   7.94    24         1
 9   8.52    32         1
10   6.13    26         1
# ℹ 999,990 more rows
…
Let’s save the result in a data frame called null_distribution:

null_distribution <- births14 %>% 
  specify(response = weight, explanatory = mage) %>% 
  hypothesize(null = "independence") %>% 
  generate(reps = 1000, type = "permute")%>% 
  calculate(stat = "slope")

null_distribution

Response: weight (numeric)
Explanatory: mage (numeric)
Null Hypothesis: independence
# A tibble: 1,000 × 2
   replicate     stat
       <int>    <dbl>
 1         1  0.00258
 2         2  0.00641
 3         3 -0.00803
 4         4  0.00647
 5         5 -0.00373
 6         6 -0.0193 
 7         7 -0.00970
 8         8  0.00394
 9         9 -0.0201 
10        10 -0.00136
# ℹ 990 more rows
…
Figure 14: Example of observed value, fitted value, and residual.

Furthermore, we can automate the calculation of all \(n\) = 1000 residuals by applying the get_regression_points() function to our saved regression model in births_lm. Observe how the resulting values of residual are roughly equal to mage - mage_hat (there is potentially a slight difference due to rounding error).

# Fit regression model:
births_lm <- lm(weight ~ mage, data = births14)
# Get regression points:
regression_points <- get_regression_points(births_lm)
regression_points

# A tibble: 1,000 × 5
      ID weight  mage weight_hat residual
   <int>  <dbl> <dbl>      <dbl>    <dbl>
 1     1   6.96    34       7.28   -0.317
 2     2   8.86    31       7.23    1.63 
 3     3   7.51    36       7.31    0.204
 4     4   6.19    16       7.02   -0.831
 5     5   6.75    31       7.23   -0.484
 6     6   6.69    26       7.16   -0.473
 7     7   6.13    36       7.31   -1.18 
 8     8   6.74    24       7.14   -0.395
 9     9   8.94    32       7.25    1.69 
10    10   9.12    26       7.16    1.96 
# ℹ 990 more rows
…
