STAT 313 / 513 - Week 7 – Confidence Intervals for the Slope
…
Let’s modify this code to perform the resampling with replacement from the 1,000 birth records in the original sample:

virtual_resample <- rep_sample_n(births14, 
                                 size = 1000,
                                 replace = TRUE, 
                                 reps = 1)

Observe how we explicitly set the replace argument to TRUE in order to tell rep_sample_n() that we would like to sample birth records with replacement. Had we not kept replace = FALSE, we would have done resampling without replacement. Additionally, we changed the sample size, as we need to create a sample with the same size as the original sample which had 1,000 observations.

Let’s look at only the first 10 out of 1,000 rows of virtual_resample:

virtual_resample

# A tibble: 1,000 × 15
# Groups:   replicate [1]
   replicate    ID  mage weight  fage mature      weeks premie    visits gained
       <int> <int> <dbl>  <dbl> <int> <chr>       <dbl> <chr>      <dbl>  <dbl>
 1         1   333    29   7.4     31 younger mom    39 full term     13     50
 2         1   595    29   0.75    NA younger mom    21 premie         4     NA
 3         1   338    31   6.94    NA younger mom    39 full term      9     20
 4         1   531    33   6.94    37 younger mom    39 full term     14     20
 5         1   289    35   7.98    35 mature mom     38 full term     10     40
 6         1   461    32   7.15    33 younger mom    39 full term     13     NA
 7         1   137    26   7.69    36 younger mom    38 full term     NA     25
 8         1   828    36   4.54    65 mature mom     36 premie        11     10
 9         1   118    26   8.31    24 younger mom    37 full term     12     25
10         1    95    38   6.04    37 mature mom     36 premie        10     32
# ℹ 990 more rows
# ℹ 5 more variables: lowbirthweight <chr>, sex <chr>, habit <chr>,
#   marital <chr>, whitemom <chr>
…
Figure 7: “Diagram of specify()ing variables.”

As shown in Figure 7, the specify() function is used to choose which variables in a data frame will be the focus of our statistical inference. We do this by specifying the response argument. For example, in our births14 data frame, the response variable of interest is weight and the explanatory variable is mage:

births14 %>% 
  specify(response = weight, 
          explanatory = mage)

Response: weight (numeric)
Explanatory: mage (numeric)
# A tibble: 1,000 × 2
   weight  mage
    <dbl> <dbl>
 1   6.96    34
 2   8.86    31
 3   7.51    36
 4   6.19    16
 5   6.75    31
 6   6.69    26
 7   6.13    36
 8   6.74    24
 9   8.94    32
10   9.12    26
# ℹ 990 more rows
…
After we specify() the variables of interest, we pipe the results into the generate() function to generate replicates. Figure 8 shows how this is combined with specify() to start the pipeline. In other words, repeat the resampling process a large number of times, similar to how we collected 35 different samples of balls from the bowl.

The generate() function’s first argument is reps, which sets the number of replicates we would like to generate. Suppose we were interested in obtaining 50 different resamples (each of 1,000 birth records). Then, we would we set reps = 50, telling infer that we are interested in obtaining 50 different resamples, each with 1,000 observations.

The second argument type determines the type of computer simulation we’d like to perform. We set this to type = "bootstrap" indicating that we want to perform bootstrap resampling, meaning the resampling should be done with replacement. You’ll see different options for type when we learn about hypothesis testing next week.

births14 %>% 
  specify(response = weight, 
          explanatory = mage) %>% 
  generate(reps = 50, 
           type = "bootstrap")

Response: weight (numeric)
Explanatory: mage (numeric)
# A tibble: 50,000 × 3
# Groups:   replicate [50]
   replicate weight  mage
       <int>  <dbl> <dbl>
 1         1  10.6     31
 2         1   4.31    31
 3         1   4.94    33
 4         1   5.65    36
 5         1   8       23
 6         1   7.63    37
 7         1   8       19
 8         1   3.22    30
 9         1   8.56    32
10         1   4.32    21
# ℹ 49,990 more rows
…
You can also set the stat argument to a variety of other common summary statistics, like "median", "sum", "sd" (standard deviation), and "prop" (proportion). To see a list of all possible summary statistics you can use, type ?calculate and read the help file.

Let’s save the result in a data frame called bootstrap_distribution and explore its contents:

bootstrap_distribution <- births14 %>% 
  specify(response = weight, 
          explanatory = mage) %>% 
  generate(reps = 50) %>% 
  calculate(stat = "slope")

bootstrap_distribution

Response: weight (numeric)
Explanatory: mage (numeric)
# A tibble: 50 × 2
   replicate    stat
       <int>   <dbl>
 1         1 0.0328 
 2         2 0.0181 
 3         3 0.0123 
 4         4 0.0106 
 5         5 0.0183 
 6         6 0.0190 
 7         7 0.0145 
 8         8 0.00824
 9         9 0.0155 
10        10 0.0160 
# ℹ 40 more rows
…
