STAT 313 / 513 - Week 7 – Exploring Sampling
…
Observe the following in the histogram in Figure 6:

At the low end, one group removed 50 balls from the bowl with proportion red between 0.20 and 0.25.

At the high end, another group removed 50 balls from the bowl with proportion between 0.45 and 0.5 red.

However, the most frequently occurring proportions were between 0.30 and 0.35 red, right in the middle of the distribution.

The shape of this distribution is somewhat bell-shaped.

Let’s construct this same hand-drawn histogram in R using your data visualization skills that you honed in Week 2! We saved our 33 groups of friends’ results in the tactile_prop_red data frame included in the moderndive package. Run the following to display the first 10 of 33 rows:

tactile_prop_red

# A tibble: 33 × 4
   group            replicate red_balls prop_red
   <chr>                <int>     <int>    <dbl>
 1 Ilyas, Yohan             1        21     0.42
 2 Morgan, Terrance         2        17     0.34
 3 Martin, Thomas           3        21     0.42
 4 Clark, Frank             4        21     0.42
 5 Riddhi, Karina           5        18     0.36
 6 Andrew, Tyler            6        19     0.38
 7 Julia                    7        19     0.38
 8 Rachel, Lauren           8        11     0.22
 9 Daniel, Caroline         9        15     0.3 
10 Josh, Maeve             10        17     0.34
# ℹ 23 more rows
…
Afterwards, we’ll present you with definitions, terminology, and notation related to sampling. As in many disciplines, such necessary background knowledge may seem inaccessible and even confusing at first. However, as with many difficult topics, if you truly understand the underlying concepts and practice, practice, practice, you’ll be able to master them.

To close this chapter, we’ll generalize the “sampling from a bowl” exercise to other sampling scenarios and present a theoretical result known as the Central Limit Theorem.

2 Virtual sampling

In the previous section, we performed a tactile sampling activity by hand. In other words, we used a physical bowl of balls and a physical shovel. We performed this sampling activity by hand first so that we could develop a firm understanding of the root ideas behind sampling. In this section, we’ll mimic this tactile sampling activity with a virtual sampling activity using a computer. In other words, we’ll use a virtual analog to the bowl of balls and a virtual analog to the shovel.

2.1 Using the virtual shovel once

Let’s start by performing the virtual analog of the tactile sampling exercise we performed before. We first need a virtual analog of the bowl seen in Figure Figure 1. To this end, we included a data frame named bowl in the moderndive package. The rows of bowl correspond exactly with the contents of the actual bowl.

bowl

# A tibble: 2,400 × 2
   ball_ID color
     <int> <chr>
 1       1 white
 2       2 white
 3       3 white
 4       4 red  
 5       5 white
 6       6 white
 7       7 red  
 8       8 white
 9       9 red  
10      10 white
# ℹ 2,390 more rows
…
The dataset (bowl) is the first argument

size corresponds to the size of each sample

reps corresponds to the number of samples

replace corresponds to whether each sampled observation should be replaced after it is drawn

virtual_shovel <- rep_sample_n(bowl,
                               size = 50, 
                               replace = FALSE,
                               reps = 1)
virtual_shovel

# A tibble: 50 × 3
# Groups:   replicate [1]
   replicate ball_ID color
       <int>   <int> <chr>
 1         1     306 red  
 2         1     800 red  
 3         1     996 white
 4         1    1143 white
 5         1     874 red  
 6         1     189 white
 7         1    2021 white
 8         1    1093 white
 9         1    1759 white
10         1    1413 white
# ℹ 40 more rows

Observe that virtual_shovel has 50 rows corresponding to our virtual sample of size 50. The ball_ID variable identifies which of the 2400 balls from bowl are included in our sample of 50 balls while color denotes its color. However, what does the replicate variable indicate? In virtual_shovel’s case, replicate is equal to 1 for all 50 rows. This is telling us that these 50 rows correspond to the first repeated/replicated use of the shovel, in our case our first sample. We’ll see shortly that when we “virtually” take 33 samples, replicate will take values between 1 and 33.

Let’s compute the proportion of balls in our virtual sample that are red using the dplyr data wrangling verbs you learned in Week 3. First, for each of our 50 sampled balls, let’s identify if it is red or not using a test for equality with ==. Let’s create a new Boolean variable is_red using the mutate() function:

mutate(.data = virtual_shovel, 
       is_red = (color == "red")
       )

# A tibble: 50 × 4
# Groups:   replicate [1]
   replicate ball_ID color is_red
       <int>   <int> <chr> <lgl> 
 1         1     306 red   TRUE  
 2         1     800 red   TRUE  
 3         1     996 white FALSE 
 4         1    1143 white FALSE 
 5         1     874 red   TRUE  
 6         1     189 white FALSE 
 7         1    2021 white FALSE 
 8         1    1093 white FALSE 
 9         1    1759 white FALSE 
10         1    1413 white FALSE 
# ℹ 40 more rows
…
# A tibble: 1 × 2
  replicate num_red
      <int>   <dbl>
1         1    0.34

Great! 34% of virtual_shovel’s 50 balls were red! So based on this particular sample of 50 balls, our guess at the proportion of the bowl’s balls that are red is 34%. But remember from our earlier tactile sampling activity that if we repeat this sampling, we will not necessarily obtain the same value of 34% again. There will likely be some variation. In fact, our 33 groups of friends computed 33 such proportions whose distribution we visualized in Figure 6. We saw that these estimates varied. Let’s now perform the virtual analog of having 33 groups of students use the sampling shovel!

2.2 Using the virtual shovel 33 times

Recall that in our tactile sampling exercise, we had 33 groups of students each use the shovel, yielding 33 samples of size 50 balls. We then used these 33 samples to compute 33 proportions. In other words, we repeated / replicated using the shovel 33 times. We can perform this repeated / replicated sampling virtually by once again using our virtual shovel function rep_sample_n(), but by adding the reps = 33 argument. This is telling R that we want to repeat the sampling 33 times.

We’ll save these results in a data frame called virtual_samples. We provide a preview of the first 10 rows of virtual_samples below:

# A tibble: 1,650 × 3
# Groups:   replicate [33]
   replicate ball_ID color
       <int>   <int> <chr>
 1         1      27 red  
 2         1    1706 white
 3         1     538 white
 4         1    2309 white
 5         1    1244 red  
 6         1    1092 red  
 7         1     894 white
 8         1    1591 white
 9         1      38 white
10         1    2191 red  
# ℹ 1,640 more rows

Observe that the first 50 rows of replicate are equal to 1. If you were to continue scrolling through the dataset (like you can in RStudio’s data previewer), you would find that the next 50 rows of replicate are equal to 2. This is telling us that the first 50 rows correspond to the first sample of 50 balls while the next 50 rows correspond to the second sample of 50 balls. This pattern continues for all reps = 33 replicates and thus virtual_samples has 33 \(\times\) 50 = 1650 rows.

Let’s now take virtual_samples and compute the resulting 33 proportions red. We’ll use the same dplyr verbs as before, but this time with an additional group_by() of the replicate variable. Recall from Week 3 that by assigning the grouping variable before we summarize(), we’ll obtain a different summary statistic for each level of our group variable. Thus, we should end up with 33 different proportions, since we have 33 different replicates. We display a preview of the first 10 out of 33 rows:

# A tibble: 33 × 2
   replicate prop_red
       <int>    <dbl>
 1         1     0.44
 2         2     0.34
 3         3     0.34
 4         4     0.44
 5         5     0.4 
 6         6     0.34
 7         7     0.36
 8         8     0.46
 9         9     0.48
10        10     0.26
# ℹ 23 more rows
…
Now say we want to study the effects of sampling variation not for 33 samples, but rather for a larger number of samples, say 1000! We have two choices at this point:

We could have our groups of friends manually take 1000 samples of 50 balls and compute the corresponding 1000 proportions. This would be a tedious and time-consuming task and would likely leave our friends upset with us.

We could use the power of R to automate this repetitive task!

I believe all of us would choose option 2, so let’s abandon tactile sampling in favor of only virtual sampling. Once again let’s use the rep_sample_n() function with sample size set to be 50 once again, but this time with the number of replicates (reps) set to 1000.

virtual_samples <- rep_sample_n(bowl, 
                                size = 50, 
                                reps = 1000, 
                                replace = FALSE)
virtual_samples

# A tibble: 50,000 × 3
# Groups:   replicate [1,000]
   replicate ball_ID color
       <int>   <int> <chr>
 1         1    1178 white
 2         1     212 red  
 3         1    1023 white
 4         1    1127 white
 5         1      38 white
 6         1     452 red  
 7         1    2072 white
 8         1    2254 white
 9         1     111 white
10         1     669 white
# ℹ 49,990 more rows

Observe that now virtual_samples has 1000 \(\times\) 50 = 50000 rows, instead of the 33 \(\times\) 50 = 1650 rows from earlier. Using the same data wrangling code as earlier, let’s take the data frame virtual_samples with 1000 \(\times\) 50 = 50,000 rows and compute the resulting 1000 proportions of red balls.

virtual_prop_red <- virtual_samples %>% 
  group_by(replicate) %>% 
  summarize(prop_red = sum(color == "red") / 50) 

virtual_prop_red

# A tibble: 1,000 × 2
   replicate prop_red
       <int>    <dbl>
 1         1     0.26
 2         2     0.32
 3         3     0.26
 4         4     0.48
 5         5     0.3 
 6         6     0.24
 7         7     0.3 
 8         8     0.44
 9         9     0.42
10        10     0.4 
# ℹ 990 more rows
…
Let’s now attach words and labels to the various sampling concepts we’ve seen so far by introducing some terminology and mathematical notation. While they may seem daunting at first, we’ll make sure to tie each of them to sampling bowl activities you performed earlier. Furthermore, throughout this book we’ll give you plenty of opportunity for practice, as the best method for mastering these terms is repetition.

The first set of terms and notation relate to populations:

A population is a collection of individuals or observations we are interested in. This is also commonly denoted as a study population. We mathematically denote the population’s size using upper-case \(N\).

A population parameter is some numerical summary about the population that is unknown but you wish you knew. For example, when this quantity is a mean like the average height of all Canadians, the population parameter of interest is the population mean.

A census is an exhaustive enumeration or counting of all \(N\) individuals in the population. We do this in order to compute the population parameter’s value exactly. Of note is that as the number \(N\) of individuals in our population increases, conducting a census gets more expensive (in terms of time, energy, and money).

So in our sampling activities, the population is the collection of \(N\) = 2400 identically sized red and white balls in the bowl shown in Figure 1. Recall that we also represented the bowl “virtually” in the data frame bowl:

bowl

# A tibble: 2,400 × 2
   ball_ID color
     <int> <chr>
 1       1 white
 2       2 white
 3       3 white
 4       4 red  
 5       5 white
 6       6 white
 7       7 red  
 8       8 white
 9       9 red  
10      10 white
# ℹ 2,390 more rows
…
The second set of terms and notation relate to samples:

Sampling is the act of collecting a sample from the population, which we generally only do when we can’t perform a census. We mathematically denote the sample size using lower case \(n\), as opposed to upper case \(N\) which denotes the population’s size. Typically the sample size \(n\) is much smaller than the population size \(N\). Thus sampling is a much cheaper alternative than performing a census.

A point estimate, also known as a sample statistic, is a summary statistic computed from a sample that estimates the unknown population parameter.

So previously we conducted sampling using a shovel with 50 slots to extract samples of size \(n\) = 50. To perform the virtual analog of this sampling, recall that we used the rep_sample_n() function as follows:

virtual_shovel <- rep_sample_n(bowl, 
                               size = 50, 
                               reps = 1, 
                               replace = FALSE)
virtual_shovel

# A tibble: 50 × 3
# Groups:   replicate [1]
   replicate ball_ID color
       <int>   <int> <chr>
 1         1     231 red  
 2         1    1308 red  
 3         1    1306 white
 4         1    2274 red  
 5         1    1627 white
 6         1    2195 white
 7         1     527 red  
 8         1    1744 white
 9         1    1054 red  
10         1    1223 red  
# ℹ 40 more rows
…
