Model Selection – STAT 313 / 513
…
Exploring the variability of SAT math scores

As evidenced by the plot, there appears to be a moderately strong relationship between SAT math scores and the percent of students who are economically disadvantaged. Next, let’s fit the linear regression for modeling the relationship between SAT math scores and the percent of students who are economically disadvantaged.

Recall, we can use the get_regression_points() function2 to our saved linear model (fit with the lm() function) to get:

the observed values (\(y\))

the fitted values (\(\hat{y}\))

the residuals (\(y - \hat{y}\))

get_regression_points(sat_simple) 
#> # A tibble: 332 × 5
#>      ID average_sat_math perc_disadvan average_sat_math_hat residual
#>   <int>            <dbl>         <dbl>                <dbl>    <dbl>
#> 1     1              516          21.5                 522.    -5.52
#> 2     2              514          22.7                 518.    -4.18
#> 3     3              534          14.6                 541.    -6.70
#> 4     4              581           6.3                 564.    17.2 
#> 5     5              592          10.3                 553.    39.4 
#> 6     6              576          10.3                 553.    23.4 
#> # ℹ 326 more rows
…
